<?xml version="1.0" encoding="utf-8"?>
<!DOCTYPE eagle SYSTEM "eagle.dtd">
<eagle version="7.6.0">
<drawing>
<settings>
<setting alwaysvectorfont="no"/>
<setting verticaltext="up"/>
</settings>
<grid distance="0.1" unitdist="inch" unit="inch" style="lines" multiple="1" display="no" altdistance="0.01" altunitdist="inch" altunit="inch"/>
<layers>
<layer number="1" name="Top" color="4" fill="1" visible="yes" active="yes"/>
<layer number="16" name="Bottom" color="1" fill="1" visible="yes" active="yes"/>
<layer number="17" name="Pads" color="2" fill="1" visible="yes" active="yes"/>
<layer number="18" name="Vias" color="2" fill="1" visible="yes" active="yes"/>
<layer number="19" name="Unrouted" color="6" fill="1" visible="yes" active="yes"/>
<layer number="20" name="Dimension" color="15" fill="1" visible="yes" active="yes"/>
<layer number="21" name="tPlace" color="7" fill="1" visible="yes" active="yes"/>
<layer number="22" name="bPlace" color="7" fill="1" visible="yes" active="yes"/>
<layer number="23" name="tOrigins" color="15" fill="1" visible="yes" active="yes"/>
<layer number="24" name="bOrigins" color="15" fill="1" visible="yes" active="yes"/>
<layer number="25" name="tNames" color="7" fill="1" visible="yes" active="yes"/>
<layer number="26" name="bNames" color="7" fill="1" visible="yes" active="yes"/>
<layer number="27" name="tValues" color="7" fill="1" visible="yes" active="yes"/>
<layer number="28" name="bValues" color="7" fill="1" visible="yes" active="yes"/>
<layer number="29" name="tStop" color="7" fill="3" visible="no" active="yes"/>
<layer number="30" name="bStop" color="7" fill="6" visible="no" active="yes"/>
<layer number="31" name="tCream" color="7" fill="4" visible="no" active="yes"/>
<layer number="32" name="bCream" color="7" fill="5" visible="no" active="yes"/>
<layer number="33" name="tFinish" color="6" fill="3" visible="no" active="yes"/>
<layer number="34" name="bFinish" color="6" fill="6" visible="no" active="yes"/>
<layer number="35" name="tGlue" color="7" fill="4" visible="no" active="yes"/>
<layer number="36" name="bGlue" color="7" fill="5" visible="no" active="yes"/>
<layer number="37" name="tTest" color="7" fill="1" visible="no" active="yes"/>
<layer number="38" name="bTest" color="7" fill="1" visible="no" active="yes"/>
<layer number="39" name="tKeepout" color="4" fill="11" visible="yes" active="yes"/>
<layer number="40" name="bKeepout" color="1" fill="11" visible="yes" active="yes"/>
<layer number="41" name="tRestrict" color="4" fill="10" visible="yes" active="yes"/>
<layer number="42" name="bRestrict" color="1" fill="10" visible="yes" active="yes"/>
<layer number="43" name="vRestrict" color="2" fill="10" visible="yes" active="yes"/>
<layer number="44" name="Drills" color="7" fill="1" visible="no" active="yes"/>
<layer number="45" name="Holes" color="7" fill="1" visible="no" active="yes"/>
<layer number="46" name="Milling" color="3" fill="1" visible="no" active="yes"/>
<layer number="47" name="Measures" color="7" fill="1" visible="no" active="yes"/>
<layer number="48" name="Document" color="7" fill="1" visible="yes" active="yes"/>
<layer number="49" name="Reference" color="7" fill="1" visible="yes" active="yes"/>
<layer number="50" name="dxf" color="7" fill="1" visible="no" active="no"/>
<layer number="51" name="tDocu" color="7" fill="1" visible="yes" active="yes"/>
<layer number="52" name="bDocu" color="7" fill="1" visible="yes" active="yes"/>
<layer number="53" name="tGND_GNDA" color="7" fill="9" visible="no" active="no"/>
<layer number="54" name="bGND_GNDA" color="1" fill="9" visible="no" active="no"/>
<layer number="90" name="Modules" color="5" fill="1" visible="yes" active="yes"/>
<layer number="91" name="Nets" color="2" fill="1" visible="yes" active="yes"/>
<layer number="92" name="Busses" color="1" fill="1" visible="yes" active="yes"/>
<layer number="93" name="Pins" color="2" fill="1" visible="yes" active="yes"/>
<layer number="94" name="Symbols" color="4" fill="1" visible="yes" active="yes"/>
<layer number="95" name="Names" color="7" fill="1" visible="yes" active="yes"/>
<layer number="96" name="Values" color="7" fill="1" visible="yes" active="yes"/>
<layer number="97" name="Info" color="7" fill="1" visible="yes" active="yes"/>
<layer number="98" name="Guide" color="6" fill="1" visible="yes" active="yes"/>
<layer number="99" name="SpiceOrder" color="5" fill="1" visible="no" active="no"/>
<layer number="100" name="Cartouche" color="15" fill="1" visible="yes" active="yes"/>
<layer number="101" name="DiagFonc" color="7" fill="1" visible="yes" active="yes"/>
<layer number="250" name="Descript" color="3" fill="1" visible="no" active="no"/>
<layer number="251" name="SMDround" color="12" fill="11" visible="no" active="no"/>
<layer number="254" name="cooling" color="7" fill="1" visible="yes" active="yes"/>
</layers>
<library>
<packages>
<package name="ESP12E_DEVKIT">
<description>ESP12E_DEVKIT</description>
<wire x1="-12.7" y1="-24.13" x2="-12.7" y2="24.13" width="0.2032" layer="51"/>
<wire x1="-12.7" y1="-24.13" x2="-3.81" y2="-24.13" width="0.2032" layer="51"/>
<wire x1="-3.81" y1="-24.13" x2="3.81" y2="-24.13" width="0.2032" layer="51"/>
<wire x1="3.81" y1="-24.13" x2="12.7" y2="-24.13" width="0.2032" layer="51"/>
<wire x1="-12.7" y1="24.13" x2="-7.62" y2="24.13" width="0.2032" layer="51"/>
<wire x1="-7.62" y1="24.13" x2="7.62" y2="24.13" width="0.2032" layer="51"/>
<wire x1="7.62" y1="24.13" x2="12.7" y2="24.13" width="0.2032" layer="51"/>
<wire x1="12.7" y1="24.13" x2="12.7" y2="-24.13" width="0.2032" layer="51"/>
<pad name="AD0" x="-11.43" y="17.78" drill="0.8" diameter="1.9304"/>
<pad name="RSV@0" x="-11.43" y="15.24" drill="0.8" diameter="1.9304"/>
<pad name="RSV@1" x="-11.43" y="12.7" drill="0.8" diameter="1.9304"/>
<pad name="SD3" x="-11.43" y="10.16" drill="0.8" diameter="1.9304"/>
<pad name="SD2" x="-11.43" y="7.62" drill="0.8" diameter="1.9304"/>
<pad name="SD1" x="-11.43" y="5.08" drill="0.8" diameter="1.9304"/>
<pad name="CMD" x="-11.43" y="2.54" drill="0.8" diameter="1.9304"/>
<pad name="SD0" x="-11.43" y="0" drill="0.8" diameter="1.9304"/>
<pad name="CLK" x="-11.43" y="-2.54" drill="0.8" diameter="1.9304"/>
<pad name="GND@0" x="-11.43" y="-5.08" drill="0.8" diameter="1.9304"/>
<pad name="3V3@0" x="-11.43" y="-7.62" drill="0.8" diameter="1.9304"/>
<pad name="EN" x="-11.43" y="-10.16" drill="0.8" diameter="1.9304"/>
<pad name="RST" x="-11.43" y="-12.7" drill="0.8" diameter="1.9304"/>
<pad name="GND@1" x="-11.43" y="-15.24" drill="0.8" diameter="1.9304"/>
<pad name="VIN" x="-11.43" y="-17.78" drill="0.8" diameter="1.9304"/>
<pad name="D0" x="11.43" y="17.78" drill="0.8" diameter="1.9304"/>
<pad name="D1" x="11.43" y="15.24" drill="0.8" diameter="1.9304"/>
<pad name="D2" x="11.43" y="12.7" drill="0.8" diameter="1.9304"/>
<pad name="D3" x="11.43" y="10.16" drill="0.8" diameter="1.9304"/>
<pad name="D4" x="11.43" y="7.62" drill="0.8" diameter="1.9304"/>
<pad name="3V3@1" x="11.43" y="5.08" drill="0.8" diameter="1.9304"/>
<pad name="GND@2" x="11.43" y="2.54" drill="0.8" diameter="1.9304"/>
<pad name="D5" x="11.43" y="0" drill="0.8" diameter="1.9304"/>
<pad name="D6" x="11.43" y="-2.54" drill="0.8" diameter="1.9304"/>
<pad name="D7" x="11.43" y="-5.08" drill="0.8" diameter="1.9304"/>
<pad name="D8" x="11.43" y="-7.62" drill="0.8" diameter="1.9304"/>
<pad name="RX" x="11.43" y="-10.16" drill="0.8" diameter="1.9304"/>
<pad name="TX" x="11.43" y="-12.7" drill="0.8" diameter="1.9304"/>
<pad name="GND@3" x="11.43" y="-15.24" drill="0.8" diameter="1.9304"/>
<pad name="3V3@2" x="11.43" y="-17.78" drill="0.8" diameter="1.9304"/>
<wire x1="-7.62" y1="24.13" x2="-7.62" y2="1.27" width="0.2032" layer="51"/>
<wire x1="-7.62" y1="1.27" x2="7.62" y2="1.27" width="0.2032" layer="51"/>
<wire x1="7.62" y1="1.27" x2="7.62" y2="24.13" width="0.2032" layer="51"/>
<wire x1="-3.81" y1="-24.13" x2="-3.81" y2="-20.32" width="0.2032" layer="51"/>
<wire x1="-3.81" y1="-20.32" x2="3.81" y2="-20.32" width="0.2032" layer="51"/>
<wire x1="3.81" y1="-20.32" x2="3.81" y2="-24.13" width="0.2032" layer="51"/>
<wire x1="-5.08" y1="19.05" x2="-5.08" y2="22.86" width="0.2032" layer="51"/>
<wire x1="-5.08" y1="22.86" x2="-3.81" y2="22.86" width="0.2032" layer="51"/>
<wire x1="-3.81" y1="22.86" x2="-3.81" y2="20.32" width="0.2032" layer="51"/>
<wire x1="-3.81" y1="20.32" x2="-2.54" y2="20.32" width="0.2032" layer="51"/>
<wire x1="-2.54" y1="20.32" x2="-2.54" y2="22.86" width="0.2032" layer="51"/>
<wire x1="-2.54" y1="22.86" x2="-1.27" y2="22.86" width="0.2032" layer="51"/>
<wire x1="-1.27" y1="22.86" x2="-1.27" y2="20.32" width="0.2032" layer="51"/>
<wire x1="-1.27" y1="20.32" x2="0" y2="20.32" width="0.2032" layer="51"/>
<wire x1="0" y1="20.32" x2="0" y2="22.86" width="0.2032" layer="51"/>
<wire x1="0" y1="22.86" x2="1.27" y2="22.86" width="0.2032" layer="51"/>
<wire x1="1.27" y1="22.86" x2="1.27" y2="20.32" width="0.2032" layer="51"/>
<wire x1="1.27" y1="20.32" x2="2.54" y2="20.32" width="0.2032" layer="51"/>
<wire x1="2.54" y1="20.32" x2="2.54" y2="22.86" width="0.2032" layer="51"/>
<wire x1="2.54" y1="22.86" x2="5.08" y2="22.86" width="0.2032" layer="51"/>
<wire x1="-7.62" y1="-20.32" x2="-5.08" y2="-20.32" width="0.2032" layer="51"/>
<wire x1="-5.08" y1="-20.32" x2="-5.08" y2="-22.86" width="0.2032" layer="51"/>
<wire x1="-5.08" y1="-22.86" x2="-7.62" y2="-22.86" width="0.2032" layer="51"/>
<wire x1="-7.62" y1="-22.86" x2="-7.62" y2="-20.32" width="0.2032" layer="51"/>
<wire x1="5.08" y1="-20.32" x2="5.08" y2="-22.86" width="0.2032" layer="51"/>
<wire x1="5.08" y1="-22.86" x2="7.62" y2="-22.86" width="0.2032" layer="51"/>
<wire x1="7.62" y1="-22.86" x2="7.62" y2="-20.32" width="0.2032" layer="51"/>
<wire x1="7.62" y1="-20.32" x2="5.08" y2="-20.32" width="0.2032" layer="51"/>
<hole x="-10.16" y="21.59" drill="3.2"/>
<hole x="10.16" y="21.59" drill="3.2"/>
<hole x="10.16" y="-21.59" drill="3.2"/>
<hole x="-10.16" y="-21.59" drill="3.2"/>
<text x="-10.16" y="17.78" size="0.8128" layer="51">AD0</text>
<text x="-10.16" y="15.24" size="0.8128" layer="51">RSV</text>
<text x="-10.16" y="12.7" size="0.8128" layer="51">RSV</text>
<text x="-10.16" y="10.16" size="0.8128" layer="51">SD3</text>
<text x="-10.16" y="7.62" size="0.8128" layer="51">SD2</text>
<text x="-10.16" y="5.08" size="0.8128" layer="51">SD1</text>
<text x="-10.16" y="2.54" size="0.8128" layer="51">CMD</text>
<text x="-10.16" y="0" size="0.8128" layer="51">SD0</text>
<text x="-10.16" y="-2.54" size="0.8128" layer="51">CLK</text>
<text x="-10.16" y="-5.08" size="0.8128" layer="51">GND</text>
<text x="-10.16" y="-7.62" size="0.8128" layer="51">3V3</text>
<text x="-10.16" y="-10.16" size="0.8128" layer="51">EN</text>
<text x="-10.16" y="-12.7" size="0.8128" layer="51">RST</text>
<text x="-10.16" y="-15.24" size="0.8128" layer="51">GND</text>
<text x="-10.16" y="-17.78" size="0.8128" layer="51">VIN</text>
<text x="10.16" y="-17.78" size="0.8128" layer="51" align="bottom-right">3V3</text>
<text x="10.16" y="-15.24" size="0.8128" layer="51" align="bottom-right">GND</text>
<text x="10.16" y="-12.7" size="0.8128" layer="51" align="bottom-right">TX</text>
<text x="10.16" y="-10.16" size="0.8128" layer="51" align="bottom-right">RX</text>
<text x="10.16" y="-7.62" size="0.8128" layer="51" align="bottom-right">~D8</text>
<text x="10.16" y="-5.08" size="0.8128" layer="51" align="bottom-right">~D7</text>
<text x="10.16" y="-2.54" size="0.8128" layer="51" align="bottom-right">~D6</text>
<text x="10.16" y="0" size="0.8128" layer="51" align="bottom-right">~D5</text>
<text x="10.16" y="2.54" size="0.8128" layer="51" align="bottom-right">GND</text>
<text x="10.16" y="5.08" size="0.8128" layer="51" align="bottom-right">3V3</text>
<text x="10.16" y="7.62" size="0.8128" layer="51" align="bottom-right">~D4</text>
<text x="10.16" y="10.16" size="0.8128" layer="51" align="bottom-right">~D3</text>
<text x="10.16" y="12.7" size="0.8128" layer="51" align="bottom-right">~D2</text>
<text x="10.16" y="15.24" size="0.8128" layer="51" align="bottom-right">~D1</text>
<text x="10.16" y="17.78" size="0.8128" layer="51" align="bottom-right">D0</text>
<text x="-2.54" y="-19.05" size="1.778" layer="25" rot="R90">&gt;NAME</text>
<text x="3.81" y="-19.05" size="1.778" layer="27" rot="R90">&gt;VALUE</text>
</package>
<package name="CARTOUCHE">
<wire x1="0" y1="0" x2="0" y2="42.418" width="0.127" layer="100"/>
<wire x1="0" y1="42.418" x2="0" y2="84.836" width="0.127" layer="100"/>
<wire x1="0" y1="84.836" x2="0" y2="127.254" width="0.127" layer="100"/>
<wire x1="0" y1="127.254" x2="0" y2="169.672" width="0.127" layer="100"/>
<wire x1="0" y1="169.672" x2="0" y2="209.55" width="0.127" layer="100"/>
<wire x1="0" y1="209.55" x2="49.53" y2="209.55" width="0.127" layer="100"/>
<wire x1="49.53" y1="209.55" x2="95.25" y2="209.55" width="0.127" layer="100"/>
<wire x1="95.25" y1="209.55" x2="140.97" y2="209.55" width="0.127" layer="100"/>
<wire x1="140.97" y1="209.55" x2="186.69" y2="209.55" width="0.127" layer="100"/>
<wire x1="186.69" y1="209.55" x2="232.41" y2="209.55" width="0.127" layer="100"/>
<wire x1="232.41" y1="209.55" x2="281.94" y2="209.55" width="0.127" layer="100"/>
<wire x1="281.94" y1="209.55" x2="281.94" y2="169.672" width="0.127" layer="100"/>
<wire x1="281.94" y1="169.672" x2="281.94" y2="127.254" width="0.127" layer="100"/>
<wire x1="281.94" y1="127.254" x2="281.94" y2="84.836" width="0.127" layer="100"/>
<wire x1="281.94" y1="84.836" x2="281.94" y2="42.418" width="0.127" layer="100"/>
<wire x1="281.94" y1="42.418" x2="281.94" y2="0" width="0.127" layer="100"/>
<wire x1="281.94" y1="0" x2="278.13" y2="0" width="0.127" layer="100"/>
<wire x1="278.13" y1="0" x2="257.556" y2="0" width="0.127" layer="100"/>
<wire x1="257.556" y1="0" x2="191.516" y2="0" width="0.127" layer="100"/>
<wire x1="191.516" y1="0" x2="3.81" y2="0" width="0.127" layer="100"/>
<wire x1="3.81" y1="0" x2="0" y2="0" width="0.127" layer="100"/>
<wire x1="3.81" y1="0" x2="3.81" y2="42.418" width="0.127" layer="100"/>
<wire x1="3.81" y1="42.418" x2="3.81" y2="84.836" width="0.127" layer="100"/>
<wire x1="3.81" y1="84.836" x2="3.81" y2="127.254" width="0.127" layer="100"/>
<wire x1="3.81" y1="127.254" x2="3.81" y2="169.672" width="0.127" layer="100"/>
<wire x1="3.81" y1="205.74" x2="49.53" y2="205.74" width="0.127" layer="100"/>
<wire x1="49.53" y1="205.74" x2="95.25" y2="205.74" width="0.127" layer="100"/>
<wire x1="95.25" y1="205.74" x2="140.97" y2="205.74" width="0.127" layer="100"/>
<wire x1="140.97" y1="205.74" x2="186.69" y2="205.74" width="0.127" layer="100"/>
<wire x1="186.69" y1="205.74" x2="232.41" y2="205.74" width="0.127" layer="100"/>
<wire x1="232.41" y1="205.74" x2="278.13" y2="205.74" width="0.127" layer="100"/>
<wire x1="278.13" y1="205.74" x2="278.13" y2="169.672" width="0.127" layer="100"/>
<wire x1="278.13" y1="169.672" x2="278.13" y2="127.254" width="0.127" layer="100"/>
<wire x1="278.13" y1="127.254" x2="278.13" y2="84.836" width="0.127" layer="100"/>
<wire x1="278.13" y1="84.836" x2="278.13" y2="42.418" width="0.127" layer="100"/>
<wire x1="278.13" y1="42.418" x2="278.13" y2="35.814" width="0.127" layer="100"/>
<wire x1="278.13" y1="35.814" x2="278.13" y2="32.004" width="0.127" layer="100"/>
<wire x1="278.13" y1="32.004" x2="278.13" y2="20.574" width="0.127" layer="100"/>
<wire x1="278.13" y1="20.574" x2="278.13" y2="12.954" width="0.127" layer="100"/>
<wire x1="278.13" y1="12.954" x2="278.13" y2="5.08" width="0.127" layer="100"/>
<wire x1="278.13" y1="5.08" x2="278.13" y2="0" width="0.127" layer="100"/>
<wire x1="281.94" y1="42.418" x2="278.13" y2="42.418" width="0.127" layer="100"/>
<wire x1="281.94" y1="84.836" x2="278.13" y2="84.836" width="0.127" layer="100"/>
<wire x1="281.94" y1="127.254" x2="278.13" y2="127.254" width="0.127" layer="100"/>
<wire x1="281.94" y1="169.672" x2="278.13" y2="169.672" width="0.127" layer="100"/>
<wire x1="3.81" y1="42.418" x2="0" y2="42.418" width="0.127" layer="100"/>
<wire x1="0" y1="84.836" x2="3.81" y2="84.836" width="0.127" layer="100"/>
<wire x1="3.81" y1="127.254" x2="0" y2="127.254" width="0.127" layer="100"/>
<wire x1="0" y1="169.672" x2="3.81" y2="169.672" width="0.127" layer="100"/>
<wire x1="49.53" y1="209.55" x2="49.53" y2="205.74" width="0.127" layer="100"/>
<wire x1="95.25" y1="209.55" x2="95.25" y2="205.74" width="0.127" layer="100"/>
<wire x1="140.97" y1="209.55" x2="140.97" y2="205.74" width="0.127" layer="100"/>
<wire x1="186.69" y1="209.55" x2="186.69" y2="205.74" width="0.127" layer="100"/>
<wire x1="232.41" y1="209.55" x2="232.41" y2="205.74" width="0.127" layer="100"/>
<text x="1.27" y="148.463" size="1.27" layer="100">B</text>
<wire x1="3.81" y1="169.672" x2="3.81" y2="205.74" width="0.127" layer="100"/>
<text x="1.27" y="106.045" size="1.27" layer="100">C</text>
<text x="1.27" y="63.627" size="1.27" layer="100">A</text>
<text x="1.27" y="21.209" size="1.27" layer="100">E</text>
<text x="1.27" y="190.881" size="1.27" layer="100">A</text>
<text x="279.527" y="148.463" size="1.27" layer="100">B</text>
<text x="279.527" y="106.045" size="1.27" layer="100">C</text>
<text x="279.527" y="63.627" size="1.27" layer="100">A</text>
<text x="279.527" y="21.209" size="1.27" layer="100">E</text>
<text x="279.527" y="190.881" size="1.27" layer="100">A</text>
<text x="26.67" y="207.01" size="1.27" layer="100">1</text>
<text x="72.39" y="207.01" size="1.27" layer="100">2</text>
<text x="118.11" y="207.01" size="1.27" layer="100">3</text>
<text x="163.83" y="207.01" size="1.27" layer="100">4</text>
<text x="209.55" y="207.01" size="1.27" layer="100">1</text>
<text x="255.27" y="207.01" size="1.27" layer="100">6</text>
<wire x1="191.516" y1="0" x2="191.516" y2="5.08" width="0.127" layer="100"/>
<wire x1="191.516" y1="5.08" x2="191.516" y2="12.954" width="0.127" layer="100"/>
<wire x1="191.516" y1="12.954" x2="191.516" y2="20.574" width="0.127" layer="100"/>
<wire x1="191.516" y1="20.574" x2="191.516" y2="28.194" width="0.127" layer="100"/>
<wire x1="191.516" y1="28.194" x2="191.516" y2="35.814" width="0.127" layer="100"/>
<wire x1="191.516" y1="35.814" x2="219.456" y2="35.814" width="0.127" layer="100"/>
<wire x1="219.456" y1="35.814" x2="278.13" y2="35.814" width="0.127" layer="100"/>
<wire x1="191.516" y1="5.08" x2="198.374" y2="5.08" width="0.127" layer="100"/>
<wire x1="198.374" y1="5.08" x2="208.28" y2="5.08" width="0.127" layer="100"/>
<wire x1="208.28" y1="5.08" x2="219.456" y2="5.08" width="0.127" layer="100"/>
<wire x1="219.456" y1="5.08" x2="257.556" y2="5.08" width="0.127" layer="100"/>
<wire x1="257.556" y1="5.08" x2="278.13" y2="5.08" width="0.127" layer="100"/>
<wire x1="191.516" y1="12.954" x2="198.374" y2="12.954" width="0.127" layer="100"/>
<wire x1="198.374" y1="12.954" x2="208.28" y2="12.954" width="0.127" layer="100"/>
<wire x1="208.28" y1="12.954" x2="278.13" y2="12.954" width="0.127" layer="100"/>
<wire x1="191.516" y1="20.574" x2="278.13" y2="20.574" width="0.127" layer="100"/>
<wire x1="191.516" y1="28.194" x2="219.456" y2="28.194" width="0.127" layer="100"/>
<wire x1="198.374" y1="5.08" x2="198.374" y2="12.954" width="0.127" layer="100"/>
<wire x1="208.28" y1="5.08" x2="208.28" y2="12.954" width="0.127" layer="100"/>
<wire x1="219.456" y1="5.08" x2="219.456" y2="28.194" width="0.127" layer="100"/>
<wire x1="219.456" y1="28.194" x2="219.456" y2="32.004" width="0.127" layer="100"/>
<wire x1="219.456" y1="32.004" x2="219.456" y2="35.814" width="0.127" layer="100"/>
<wire x1="257.556" y1="5.08" x2="257.556" y2="0" width="0.127" layer="100"/>
<wire x1="278.13" y1="32.004" x2="219.456" y2="32.004" width="0.127" layer="100"/>
<text x="192.024" y="33.782" size="1.27" layer="100">Dessiné par:</text>
<text x="192.024" y="26.162" size="1.27" layer="100">Vérifié par:</text>
<text x="192.278" y="18.542" size="1.27" layer="100">Approuvé par:</text>
<text x="192.024" y="10.922" size="1.27" layer="100">Format</text>
<text x="200.152" y="10.922" size="1.27" layer="100">Version</text>
<text x="210.566" y="10.922" size="1.27" layer="100">Révision</text>
<text x="220.218" y="10.922" size="1.27" layer="100">Titre du schématique:</text>
<text x="219.964" y="18.542" size="1.27" layer="100">Chemin et nom du design</text>
<text x="219.964" y="20.828" size="2.1844" layer="100" distance="25">CÉGEP de l'Outaouais
820 Boulevard La Gappe
Gatineau, Québec
J8T 7T7</text>
<text x="259.588" y="1.778" size="1.27" layer="100">Feuilles(s)      de</text>
<text x="192.024" y="3.048" size="1.27" layer="100">Date:</text>
<text x="220.98" y="6.35" size="2.54" layer="100" font="vector">&gt;DRAWING_NAME</text>
<text x="196.85" y="1.27" size="2.54" layer="100" font="vector">&gt;LAST_DATE_TIME</text>
</package>
<package name="SMD4">
<description>&lt;b&gt;SMD 4&lt;/b&gt;&lt;p&gt;
Source: http://www.vishay.com/docs/83673/sfh618.pdf</description>
<wire x1="2.315" y1="3.18" x2="2.315" y2="-3.18" width="0.1524" layer="21"/>
<wire x1="-2.315" y1="-1.085" x2="-2.315" y2="3.18" width="0.1524" layer="21"/>
<wire x1="-2.315" y1="3.18" x2="2.315" y2="3.18" width="0.1524" layer="51"/>
<wire x1="2.315" y1="-3.18" x2="-2.315" y2="-3.18" width="0.1524" layer="51"/>
<wire x1="-2.315" y1="-2.13" x2="-2.315" y2="-1.085" width="0.1524" layer="21" curve="180"/>
<wire x1="-2.315" y1="-3.18" x2="-2.315" y2="-2.13" width="0.1524" layer="21"/>
<wire x1="-2.315" y1="-2.13" x2="-2.315" y2="-1.085" width="0.1524" layer="21"/>
<smd name="1" x="-1.27" y="-3.5" dx="1.78" dy="1.55" layer="1"/>
<smd name="2" x="1.27" y="-3.5" dx="1.78" dy="1.55" layer="1"/>
<smd name="3" x="1.27" y="3.5" dx="1.78" dy="1.55" layer="1" rot="R180"/>
<smd name="4" x="-1.27" y="3.5" dx="1.78" dy="1.55" layer="1" rot="R180"/>
<text x="-2.54" y="-3.175" size="1.27" layer="25" ratio="10" rot="R90">&gt;NAME</text>
<text x="3.81" y="-3.175" size="1.27" layer="27" ratio="10" rot="R90">&gt;VALUE</text>
<rectangle x1="-1.651" y1="-3.925" x2="-0.889" y2="-3.2" layer="51"/>
<rectangle x1="0.889" y1="-3.925" x2="1.651" y2="-3.2" layer="51"/>
<rectangle x1="0.889" y1="3.2" x2="1.651" y2="3.925" layer="51" rot="R180"/>
<rectangle x1="-1.651" y1="3.2" x2="-0.889" y2="3.925" layer="51" rot="R180"/>
</package>
<package name="DIL04">
<description>&lt;b&gt;Dual In Line Package&lt;/b&gt;</description>
<wire x1="2.54" y1="2.921" x2="-2.54" y2="2.921" width="0.1524" layer="21"/>
<wire x1="-2.54" y1="-2.921" x2="2.54" y2="-2.921" width="0.1524" layer="21"/>
<wire x1="2.54" y1="2.921" x2="2.54" y2="-2.921" width="0.1524" layer="21"/>
<wire x1="-2.54" y1="2.921" x2="-2.54" y2="1.016" width="0.1524" layer="21"/>
<wire x1="-2.54" y1="-2.921" x2="-2.54" y2="-1.016" width="0.1524" layer="21"/>
<wire x1="-2.54" y1="1.016" x2="-2.54" y2="-1.016" width="0.1524" layer="21" curve="-180"/>
<pad name="1" x="-1.27" y="-3.81" drill="0.8128" shape="offset" rot="R270"/>
<pad name="2" x="1.27" y="-3.81" drill="0.8128" shape="offset" rot="R270"/>
<pad name="3" x="1.27" y="3.81" drill="0.8128" shape="offset" rot="R90"/>
<pad name="4" x="-1.27" y="3.81" drill="0.8128" shape="offset" rot="R90"/>
<text x="4.191" y="-2.921" size="1.27" layer="27" ratio="10" rot="R90">&gt;VALUE</text>
<text x="-2.921" y="-2.667" size="1.27" layer="25" ratio="10" rot="R90">&gt;NAME</text>
</package>
<package name="SOT-23">
<description>&lt;b&gt;Small Outline Transistor&lt;/b&gt;</description>
<wire x1="-1.4224" y1="0.381" x2="1.4732" y2="0.381" width="0.1524" layer="21"/>
<wire x1="1.4732" y1="0.381" x2="1.4732" y2="-0.381" width="0.1524" layer="21"/>
<wire x1="1.4732" y1="-0.381" x2="-1.4224" y2="-0.381" width="0.1524" layer="21"/>
<wire x1="-1.4224" y1="-0.381" x2="-1.4224" y2="0.381" width="0.1524" layer="21"/>
<smd name="3" x="0.9906" y="1.016" dx="0.7874" dy="0.889" layer="1"/>
<smd name="2" x="-0.9398" y="1.016" dx="0.7874" dy="0.889" layer="1"/>
<smd name="1" x="0.0254" y="-1.016" dx="0.7874" dy="0.889" layer="1"/>
<text x="-1.397" y="1.778" size="1.27" layer="27" ratio="10">&gt;VALUE</text>
<text x="-1.397" y="3.302" size="1.27" layer="25" ratio="10">&gt;NAME</text>
<rectangle x1="0.7874" y1="0.4318" x2="1.1684" y2="0.9398" layer="51"/>
<rectangle x1="-1.143" y1="0.4318" x2="-0.762" y2="0.9398" layer="51"/>
<rectangle x1="-0.1778" y1="-0.9398" x2="0.2032" y2="-0.4318" layer="51"/>
</package>
<package name="M1QUE">
<pad name="6" x="-3.81" y="-2.54" drill="0.8" shape="square"/>
<pad name="5" x="0" y="-2.54" drill="0.8" shape="square"/>
<pad name="4" x="3.81" y="-2.54" drill="0.8" shape="square"/>
<pad name="1" x="-3.81" y="2.54" drill="0.8" shape="square"/>
<pad name="2" x="0" y="2.54" drill="0.8" shape="square"/>
<pad name="3" x="3.81" y="2.54" drill="0.8" shape="square"/>
<wire x1="-5.08" y1="3.81" x2="-5.08" y2="-3.81" width="0.127" layer="21"/>
<wire x1="-5.08" y1="-3.81" x2="5.08" y2="-3.81" width="0.127" layer="21"/>
<wire x1="5.08" y1="-3.81" x2="5.08" y2="3.81" width="0.127" layer="21"/>
<wire x1="5.08" y1="3.81" x2="-5.08" y2="3.81" width="0.127" layer="21"/>
</package>
</packages>
<symbols>
<symbol name="ESP12E_DEVKIT">
<description>ESP12E_DEVKIT</description>
<pin name="AD0" x="-17.78" y="17.78" visible="pin" length="middle"/>
<pin name="RSV@0" x="-17.78" y="15.24" visible="pin" length="middle"/>
<pin name="RSV@1" x="-17.78" y="12.7" visible="pin" length="middle"/>
<pin name="SD3" x="-17.78" y="10.16" visible="pin" length="middle"/>
<pin name="SD2" x="-17.78" y="7.62" visible="pin" length="middle"/>
<pin name="SD1" x="-17.78" y="5.08" visible="pin" length="middle"/>
<pin name="CMD" x="-17.78" y="2.54" visible="pin" length="middle"/>
<pin name="SD0" x="-17.78" y="0" visible="pin" length="middle"/>
<pin name="CLK" x="-17.78" y="-2.54" visible="pin" length="middle"/>
<pin name="GND@0" x="-17.78" y="-5.08" visible="pin" length="middle"/>
<pin name="3V3@0" x="-17.78" y="-7.62" visible="pin" length="middle"/>
<pin name="EN" x="-17.78" y="-10.16" visible="pin" length="middle"/>
<pin name="RST" x="-17.78" y="-12.7" visible="pin" length="middle"/>
<pin name="GND@1" x="-17.78" y="-15.24" visible="pin" length="middle"/>
<pin name="VIN" x="-17.78" y="-17.78" visible="pin" length="middle"/>
<pin name="D0" x="17.78" y="17.78" visible="pin" length="middle" rot="R180"/>
<pin name="D1" x="17.78" y="15.24" visible="pin" length="middle" rot="R180"/>
<pin name="D2" x="17.78" y="12.7" visible="pin" length="middle" rot="R180"/>
<pin name="D3" x="17.78" y="10.16" visible="pin" length="middle" rot="R180"/>
<pin name="D4" x="17.78" y="7.62" visible="pin" length="middle" rot="R180"/>
<pin name="3V3@1" x="17.78" y="5.08" visible="pin" length="middle" rot="R180"/>
<pin name="GND@2" x="17.78" y="2.54" visible="pin" length="middle" rot="R180"/>
<pin name="D5" x="17.78" y="0" visible="pin" length="middle" rot="R180"/>
<pin name="D6" x="17.78" y="-2.54" visible="pin" length="middle" rot="R180"/>
<pin name="D7" x="17.78" y="-5.08" visible="pin" length="middle" rot="R180"/>
<pin name="D8" x="17.78" y="-7.62" visible="pin" length="middle" rot="R180"/>
<pin name="RX" x="17.78" y="-10.16" visible="pin" length="middle" rot="R180"/>
<pin name="TX" x="17.78" y="-12.7" visible="pin" length="middle" rot="R180"/>
<pin name="GND@3" x="17.78" y="-15.24" visible="pin" length="middle" rot="R180"/>
<pin name="3V3@2" x="17.78" y="-17.78" visible="pin" length="middle" rot="R180"/>
<wire x1="-12.7" y1="20.32" x2="-12.7" y2="-20.32" width="0.254" layer="94"/>
<wire x1="-12.7" y1="-20.32" x2="12.7" y2="-20.32" width="0.254" layer="94"/>
<wire x1="12.7" y1="-20.32" x2="12.7" y2="20.32" width="0.254" layer="94"/>
<wire x1="12.7" y1="20.32" x2="-12.7" y2="20.32" width="0.254" layer="94"/>
<text x="-12.7" y="20.32" size="1.778" layer="95">&gt;NAME</text>
<text x="-12.7" y="-22.86" size="1.778" layer="96">&gt;VALUE</text>
</symbol>
<symbol name="CADRE_FORMAT_A">
<frame x1="0" y1="0" x2="279.4" y2="215.9" columns="6" rows="5" layer="100" border-bottom="no"/>
</symbol>
<symbol name="DOCUMENTATION">
<wire x1="0" y1="0" x2="66.04" y2="0" width="0.1016" layer="100"/>
<wire x1="66.04" y1="0" x2="84.074" y2="0" width="0.1016" layer="100"/>
<wire x1="84.074" y1="35.56" x2="27.94" y2="35.56" width="0.1016" layer="100"/>
<wire x1="27.94" y1="35.56" x2="0" y2="35.56" width="0.1016" layer="100"/>
<wire x1="0" y1="0" x2="0" y2="5.08" width="0.1016" layer="100"/>
<wire x1="0" y1="5.08" x2="0" y2="12.7" width="0.1016" layer="100"/>
<wire x1="0" y1="12.7" x2="0" y2="20.32" width="0.1016" layer="100"/>
<wire x1="0" y1="20.32" x2="0" y2="27.94" width="0.1016" layer="100"/>
<wire x1="0" y1="27.94" x2="0" y2="35.56" width="0.1016" layer="100"/>
<wire x1="84.074" y1="35.56" x2="84.074" y2="31.75" width="0.1016" layer="100"/>
<wire x1="84.074" y1="31.75" x2="84.074" y2="20.32" width="0.1016" layer="100"/>
<wire x1="84.074" y1="20.32" x2="84.074" y2="12.7" width="0.1016" layer="100"/>
<wire x1="84.074" y1="12.7" x2="84.074" y2="5.08" width="0.1016" layer="100"/>
<wire x1="84.074" y1="5.08" x2="84.074" y2="0" width="0.1016" layer="100"/>
<wire x1="27.94" y1="35.56" x2="27.94" y2="31.75" width="0.1016" layer="100"/>
<wire x1="27.94" y1="31.75" x2="27.94" y2="27.94" width="0.1016" layer="100"/>
<wire x1="27.94" y1="27.94" x2="27.94" y2="20.32" width="0.1016" layer="100"/>
<wire x1="0" y1="5.08" x2="6.858" y2="5.08" width="0.1016" layer="100"/>
<wire x1="6.858" y1="5.08" x2="16.764" y2="5.08" width="0.1016" layer="100"/>
<wire x1="16.764" y1="5.08" x2="27.94" y2="5.08" width="0.1016" layer="100"/>
<wire x1="27.94" y1="5.08" x2="66.04" y2="5.08" width="0.1016" layer="100"/>
<wire x1="66.04" y1="5.08" x2="84.074" y2="5.08" width="0.1016" layer="100"/>
<wire x1="0" y1="12.7" x2="6.858" y2="12.7" width="0.1016" layer="100"/>
<wire x1="6.858" y1="12.7" x2="16.764" y2="12.7" width="0.1016" layer="100"/>
<wire x1="0" y1="20.32" x2="27.94" y2="20.32" width="0.1016" layer="100"/>
<wire x1="0" y1="27.94" x2="27.94" y2="27.94" width="0.1016" layer="100"/>
<wire x1="6.858" y1="12.7" x2="6.858" y2="5.08" width="0.1016" layer="100"/>
<wire x1="16.764" y1="12.7" x2="84.074" y2="12.7" width="0.1016" layer="100"/>
<wire x1="16.764" y1="12.7" x2="16.764" y2="5.08" width="0.1016" layer="100"/>
<wire x1="27.94" y1="31.75" x2="84.074" y2="31.75" width="0.1016" layer="100"/>
<wire x1="27.94" y1="20.32" x2="84.074" y2="20.32" width="0.1016" layer="100"/>
<wire x1="27.94" y1="20.32" x2="27.94" y2="5.08" width="0.1016" layer="100"/>
<wire x1="66.04" y1="5.08" x2="66.04" y2="0" width="0.1016" layer="100"/>
<text x="7.366" y="1.778" size="2.54" layer="100" font="vector">&gt;LAST_DATE_TIME</text>
<text x="29.21" y="6.858" size="2.54" layer="100" font="vector">&gt;DRAWING_NAME</text>
<text x="28.702" y="28.702" size="2.1844" layer="100">CÉGEP de l'Outaouais</text>
<text x="28.702" y="26.162" size="1.778" layer="100">820 Boulevard La Gappe</text>
<text x="28.702" y="23.622" size="1.778" layer="100">Gatineau, Québec</text>
<text x="28.448" y="21.082" size="1.778" layer="100">J8T 7T7</text>
<text x="0.508" y="33.528" size="1.27" layer="100">Dessiné par:</text>
<text x="0.508" y="25.908" size="1.27" layer="100">Vérifié par:</text>
<text x="0.508" y="18.288" size="1.27" layer="100">Approuvé par:</text>
<text x="0.508" y="10.668" size="1.27" layer="100">Format</text>
<text x="8.89" y="10.668" size="1.27" layer="100">Version</text>
<text x="19.05" y="10.668" size="1.27" layer="100">Révision</text>
<text x="28.448" y="18.542" size="1.27" layer="100">Chemin et nom du design:</text>
<text x="28.448" y="10.922" size="1.27" layer="100">Titre du schématique:</text>
<text x="0.762" y="2.794" size="1.27" layer="100">Date:</text>
<text x="68.072" y="1.778" size="1.27" layer="100">Feuille(s)</text>
<text x="77.724" y="1.778" size="1.27" layer="100">de</text>
</symbol>
<symbol name="+24V">
<wire x1="1.27" y1="-0.635" x2="0" y2="0" width="0.254" layer="94"/>
<wire x1="0" y1="0" x2="-1.27" y2="-0.635" width="0.254" layer="94"/>
<wire x1="1.27" y1="-0.635" x2="0" y2="1.27" width="0.254" layer="94"/>
<wire x1="0" y1="1.27" x2="-1.27" y2="-0.635" width="0.254" layer="94"/>
<text x="-2.54" y="-5.08" size="1.778" layer="96" rot="R90">&gt;VALUE</text>
<pin name="+24V" x="0" y="-2.54" visible="off" length="short" direction="sup" rot="R90"/>
</symbol>
<symbol name="+5V">
<wire x1="1.27" y1="-1.905" x2="0" y2="0" width="0.254" layer="94"/>
<wire x1="0" y1="0" x2="-1.27" y2="-1.905" width="0.254" layer="94"/>
<text x="-2.54" y="-5.08" size="1.778" layer="96" rot="R90">&gt;VALUE</text>
<pin name="+5V" x="0" y="-2.54" visible="off" length="short" direction="sup" rot="R90"/>
</symbol>
<symbol name="GND1">
<wire x1="-1.27" y1="0" x2="1.27" y2="0" width="0.254" layer="94"/>
<wire x1="1.27" y1="0" x2="0" y2="-1.27" width="0.254" layer="94"/>
<wire x1="0" y1="-1.27" x2="-1.27" y2="0" width="0.254" layer="94"/>
<text x="-2.159" y="-3.175" size="1.778" layer="96">&gt;VALUE</text>
<pin name="GND1" x="0" y="2.54" visible="off" length="short" direction="sup" rot="R270"/>
</symbol>
<symbol name="GND2">
<wire x1="-1.27" y1="0" x2="1.27" y2="0" width="0.254" layer="94"/>
<wire x1="1.27" y1="0" x2="0" y2="-1.27" width="0.254" layer="94"/>
<wire x1="0" y1="-1.27" x2="-1.27" y2="0" width="0.254" layer="94"/>
<text x="-2.413" y="-3.175" size="1.778" layer="96">&gt;VALUE</text>
<pin name="GND2" x="0" y="2.54" visible="off" length="short" direction="sup" rot="R270"/>
</symbol>
<symbol name="GND3">
<wire x1="-1.27" y1="0" x2="1.27" y2="0" width="0.254" layer="94"/>
<wire x1="1.27" y1="0" x2="0" y2="-1.27" width="0.254" layer="94"/>
<wire x1="0" y1="-1.27" x2="-1.27" y2="0" width="0.254" layer="94"/>
<text x="-2.413" y="-3.175" size="1.778" layer="96">&gt;VALUE</text>
<pin name="GND3" x="0" y="2.54" visible="off" length="short" direction="sup" rot="R270"/>
</symbol>
<symbol name="OK">
<wire x1="-2.413" y1="-1.143" x2="-1.016" y2="0.254" width="0.1524" layer="94"/>
<wire x1="-1.016" y1="0.254" x2="-1.905" y2="-0.127" width="0.1524" layer="94"/>
<wire x1="-1.905" y1="-0.127" x2="-1.397" y2="-0.635" width="0.1524" layer="94"/>
<wire x1="-1.397" y1="-0.635" x2="-1.016" y2="0.254" width="0.1524" layer="94"/>
<wire x1="-1.143" y1="1.397" x2="-2.032" y2="1.016" width="0.1524" layer="94"/>
<wire x1="-2.032" y1="1.016" x2="-1.524" y2="0.508" width="0.1524" layer="94"/>
<wire x1="-1.524" y1="0.508" x2="-1.143" y2="1.397" width="0.1524" layer="94"/>
<wire x1="-2.54" y1="0" x2="-1.143" y2="1.397" width="0.1524" layer="94"/>
<wire x1="-3.175" y1="1.27" x2="-4.445" y2="-1.27" width="0.254" layer="94"/>
<wire x1="-4.445" y1="-1.27" x2="-5.715" y2="1.27" width="0.254" layer="94"/>
<wire x1="-3.175" y1="-1.27" x2="-4.445" y2="-1.27" width="0.254" layer="94"/>
<wire x1="-4.445" y1="-1.27" x2="-5.715" y2="-1.27" width="0.254" layer="94"/>
<wire x1="-3.175" y1="1.27" x2="-4.445" y2="1.27" width="0.254" layer="94"/>
<wire x1="-4.445" y1="1.27" x2="-4.445" y2="-1.27" width="0.254" layer="94"/>
<wire x1="-4.445" y1="1.27" x2="-5.715" y2="1.27" width="0.254" layer="94"/>
<wire x1="-6.985" y1="5.08" x2="4.445" y2="5.08" width="0.4064" layer="94"/>
<wire x1="-6.985" y1="-5.08" x2="4.445" y2="-5.08" width="0.4064" layer="94"/>
<wire x1="-4.445" y1="2.54" x2="-4.445" y2="1.27" width="0.1524" layer="94"/>
<wire x1="-6.985" y1="5.08" x2="-6.985" y2="-5.08" width="0.4064" layer="94"/>
<wire x1="-4.445" y1="-1.27" x2="-4.445" y2="-2.54" width="0.1524" layer="94"/>
<wire x1="4.445" y1="5.08" x2="4.445" y2="-5.08" width="0.4064" layer="94"/>
<wire x1="-4.445" y1="2.54" x2="-7.62" y2="2.54" width="0.1524" layer="94"/>
<wire x1="-4.445" y1="-2.54" x2="-7.62" y2="-2.54" width="0.1524" layer="94"/>
<wire x1="2.54" y1="2.54" x2="0" y2="0" width="0.1524" layer="94"/>
<wire x1="0" y1="0" x2="2.286" y2="-2.286" width="0.1524" layer="94"/>
<wire x1="2.54" y1="-2.54" x2="5.08" y2="-2.54" width="0.1524" layer="94"/>
<wire x1="2.54" y1="2.54" x2="5.08" y2="2.54" width="0.1524" layer="94"/>
<wire x1="1.778" y1="-1.016" x2="2.286" y2="-2.286" width="0.1524" layer="94"/>
<wire x1="2.286" y1="-2.286" x2="2.54" y2="-2.54" width="0.1524" layer="94"/>
<wire x1="2.286" y1="-2.286" x2="1.016" y2="-1.778" width="0.1524" layer="94"/>
<wire x1="1.016" y1="-1.778" x2="1.778" y2="-1.016" width="0.1524" layer="94"/>
<text x="-6.985" y="5.715" size="1.778" layer="95">&gt;NAME</text>
<text x="-6.985" y="-7.62" size="1.778" layer="96">&gt;VALUE</text>
<rectangle x1="-0.381" y1="-2.54" x2="0.381" y2="2.54" layer="94"/>
<pin name="A" x="-10.16" y="2.54" visible="pad" length="short" direction="pas"/>
<pin name="C" x="-10.16" y="-2.54" visible="pad" length="short" direction="pas"/>
<pin name="EMIT" x="7.62" y="-2.54" visible="pad" length="short" direction="pas" rot="R180"/>
<pin name="COL" x="7.62" y="2.54" visible="pad" length="short" direction="pas" rot="R180"/>
</symbol>
<symbol name="DIODE">
<wire x1="-1.016" y1="-1.27" x2="1.016" y2="0" width="0.254" layer="94"/>
<wire x1="1.016" y1="0" x2="-1.016" y2="1.27" width="0.254" layer="94"/>
<wire x1="1.016" y1="1.27" x2="1.016" y2="0" width="0.254" layer="94"/>
<wire x1="-1.016" y1="1.27" x2="-1.016" y2="-1.27" width="0.254" layer="94"/>
<wire x1="1.016" y1="0" x2="1.016" y2="-1.27" width="0.254" layer="94"/>
<text x="2.54" y="0.635" size="1.778" layer="95">&gt;NAME</text>
<text x="2.54" y="-1.905" size="1.778" layer="96">&gt;VALUE</text>
<pin name="A" x="-2.54" y="0" visible="off" length="short" direction="pas"/>
<pin name="C" x="2.54" y="0" visible="off" length="short" direction="pas" rot="R180"/>
</symbol>
<symbol name="DP-7">
<pin name="1" x="5.08" y="5.08" visible="pad" length="middle" rot="R180"/>
<pin name="2" x="5.08" y="0" visible="pad" length="middle" rot="R180"/>
<pin name="3" x="-12.7" y="-2.54" visible="pad" length="middle"/>
<pin name="4" x="5.08" y="-10.16" visible="pad" length="middle" rot="R180"/>
<pin name="6" x="5.08" y="-5.08" visible="pad" length="middle" rot="R180"/>
<wire x1="-5.08" y1="-7.62" x2="0.508" y2="-4.572" width="0.254" layer="94"/>
<wire x1="-5.08" y1="2.54" x2="0.508" y2="5.588" width="0.254" layer="94"/>
<wire x1="-7.62" y1="2.54" x2="-5.08" y2="2.54" width="0.254" layer="94"/>
<wire x1="-7.62" y1="2.54" x2="-7.62" y2="-7.62" width="0.254" layer="94"/>
<wire x1="-7.62" y1="-7.62" x2="-5.08" y2="-7.62" width="0.254" layer="94"/>
<text x="-12.7" y="-10.16" size="1.778" layer="95">&gt;NAME</text>
<text x="-12.7" y="-12.7" size="1.778" layer="96">&gt;VALUE</text>
</symbol>
</symbols>
<devicesets>
<deviceset name="ESP12E_DEVKIT" prefix="U">
<description>ESP12E DEVKIT BOARD</description>
<gates>
<gate name="G$1" symbol="ESP12E_DEVKIT" x="0" y="0"/>
</gates>
<devices>
<device name="" package="ESP12E_DEVKIT">
<connects>
<connect gate="G$1" pin="3V3@0" pad="3V3@0"/>
<connect gate="G$1" pin="3V3@1" pad="3V3@1"/>
<connect gate="G$1" pin="3V3@2" pad="3V3@2"/>
<connect gate="G$1" pin="AD0" pad="AD0"/>
<connect gate="G$1" pin="CLK" pad="CLK"/>
<connect gate="G$1" pin="CMD" pad="CMD"/>
<connect gate="G$1" pin="D0" pad="D0"/>
<connect gate="G$1" pin="D1" pad="D1"/>
<connect gate="G$1" pin="D2" pad="D2"/>
<connect gate="G$1" pin="D3" pad="D3"/>
<connect gate="G$1" pin="D4" pad="D4"/>
<connect gate="G$1" pin="D5" pad="D5"/>
<connect gate="G$1" pin="D6" pad="D6"/>
<connect gate="G$1" pin="D7" pad="D7"/>
<connect gate="G$1" pin="D8" pad="D8"/>
<connect gate="G$1" pin="EN" pad="EN"/>
<connect gate="G$1" pin="GND@0" pad="GND@0"/>
<connect gate="G$1" pin="GND@1" pad="GND@1"/>
<connect gate="G$1" pin="GND@2" pad="GND@2"/>
<connect gate="G$1" pin="GND@3" pad="GND@3"/>
<connect gate="G$1" pin="RST" pad="RST"/>
<connect gate="G$1" pin="RSV@0" pad="RSV@0"/>
<connect gate="G$1" pin="RSV@1" pad="RSV@1"/>
<connect gate="G$1" pin="RX" pad="RX"/>
<connect gate="G$1" pin="SD0" pad="SD0"/>
<connect gate="G$1" pin="SD1" pad="SD1"/>
<connect gate="G$1" pin="SD2" pad="SD2"/>
<connect gate="G$1" pin="SD3" pad="SD3"/>
<connect gate="G$1" pin="TX" pad="TX"/>
<connect gate="G$1" pin="VIN" pad="VIN"/>
</connects>
<technologies>
<technology name=""/>
</technologies>
</device>
</devices>
</deviceset>
<deviceset name="CARTOUCHE_TGÉ" prefix="FRAME" uservalue="yes">
<description>&lt;b&gt;Cartouche de TGÉ: &lt;/b&gt; Grandeur A, dimention 8 1/2 x 11 pouces, orientation portrait.
&lt;p&gt;
Les élèves doivent utiliser la commande &lt;b&gt;TEXT&lt;/b&gt; pour placer les valeurs aux champs appropriés.&lt;p&gt;
&lt;b&gt;Couche  100 Cartouche, ne pas oublier de créer cette couche!&lt;/b&gt;&lt;p&gt;
&lt;b&gt;Size par défaut: 0,07&lt;/b&gt; ou ajusté en conséquence si pas asez d'espace.&lt;p&gt;
&lt;b&gt;Ratio:&lt;/b&gt; 8%&lt;p&gt;
&lt;b&gt;Font:&lt;/b&gt; Vector.&lt;p&gt;
Voir la commande TEXT pour plus d'information.</description>
<gates>
<gate name="G$1" symbol="CADRE_FORMAT_A" x="0" y="0" addlevel="always"/>
<gate name="G$2" symbol="DOCUMENTATION" x="191.516" y="0.254" addlevel="always"/>
</gates>
<devices>
<device name="1" package="CARTOUCHE">
<technologies>
<technology name=""/>
</technologies>
</device>
</devices>
</deviceset>
<deviceset name="+24V" prefix="P+">
<description>&lt;b&gt;SUPPLY SYMBOL&lt;/b&gt;</description>
<gates>
<gate name="1" symbol="+24V" x="0" y="0"/>
</gates>
<devices>
<device name="">
<technologies>
<technology name=""/>
</technologies>
</device>
</devices>
</deviceset>
<deviceset name="+5V2" prefix="P+">
<description>&lt;b&gt;SUPPLY SYMBOL&lt;/b&gt;</description>
<gates>
<gate name="1" symbol="+5V" x="0" y="0"/>
</gates>
<devices>
<device name="">
<technologies>
<technology name=""/>
</technologies>
</device>
</devices>
</deviceset>
<deviceset name="+5V1" prefix="P+">
<description>&lt;b&gt;SUPPLY SYMBOL&lt;/b&gt;</description>
<gates>
<gate name="1" symbol="+5V" x="0" y="0"/>
</gates>
<devices>
<device name="">
<technologies>
<technology name=""/>
</technologies>
</device>
</devices>
</deviceset>
<deviceset name="GND1" prefix="SUPPLY">
<description>&lt;b&gt;SUPPLY SYMBOL&lt;/b&gt;</description>
<gates>
<gate name="G$1" symbol="GND1" x="0" y="0"/>
</gates>
<devices>
<device name="">
<technologies>
<technology name=""/>
</technologies>
</device>
</devices>
</deviceset>
<deviceset name="GND2" prefix="SUPPLY">
<description>&lt;b&gt;SUPPLY SYMBOL&lt;/b&gt;</description>
<gates>
<gate name="G$1" symbol="GND2" x="0" y="0"/>
</gates>
<devices>
<device name="">
<technologies>
<technology name=""/>
</technologies>
</device>
</devices>
</deviceset>
<deviceset name="GND3" prefix="SUPPLY">
<description>&lt;b&gt;SUPPLY SYMBOL&lt;/b&gt;</description>
<gates>
<gate name="G$1" symbol="GND3" x="0" y="0"/>
</gates>
<devices>
<device name="">
<technologies>
<technology name=""/>
</technologies>
</device>
</devices>
</deviceset>
<deviceset name="LTV816" prefix="OK">
<description>&lt;b&gt;OPTO COUPLER&lt;/b&gt;&lt;p&gt;
Source: LITEON, LTV816.pdf</description>
<gates>
<gate name="G$1" symbol="OK" x="0" y="0"/>
</gates>
<devices>
<device name="S" package="SMD4">
<connects>
<connect gate="G$1" pin="A" pad="1"/>
<connect gate="G$1" pin="C" pad="2"/>
<connect gate="G$1" pin="COL" pad="4"/>
<connect gate="G$1" pin="EMIT" pad="3"/>
</connects>
<technologies>
<technology name="">
<attribute name="MF" value="" constant="no"/>
<attribute name="MPN" value="" constant="no"/>
<attribute name="OC_FARNELL" value="unknown" constant="no"/>
<attribute name="OC_NEWARK" value="unknown" constant="no"/>
</technology>
</technologies>
</device>
<device name="" package="DIL04">
<connects>
<connect gate="G$1" pin="A" pad="1"/>
<connect gate="G$1" pin="C" pad="2"/>
<connect gate="G$1" pin="COL" pad="4"/>
<connect gate="G$1" pin="EMIT" pad="3"/>
</connects>
<technologies>
<technology name="">
<attribute name="MF" value="" constant="no"/>
<attribute name="MPN" value="" constant="no"/>
<attribute name="OC_FARNELL" value="unknown" constant="no"/>
<attribute name="OC_NEWARK" value="unknown" constant="no"/>
</technology>
</technologies>
</device>
</devices>
</deviceset>
<deviceset name="VAR2SOT23" prefix="D" uservalue="yes">
<description>&lt;b&gt;DIODE&lt;/b&gt;</description>
<gates>
<gate name="A" symbol="DIODE" x="0" y="0" swaplevel="1"/>
</gates>
<devices>
<device name="" package="SOT-23">
<connects>
<connect gate="A" pin="A" pad="3"/>
<connect gate="A" pin="C" pad="1"/>
</connects>
<technologies>
<technology name="">
<attribute name="MF" value="" constant="no"/>
<attribute name="MPN" value="" constant="no"/>
<attribute name="OC_FARNELL" value="unknown" constant="no"/>
<attribute name="OC_NEWARK" value="unknown" constant="no"/>
</technology>
</technologies>
</device>
</devices>
</deviceset>
<deviceset name="100DP-7" prefix="S">
<gates>
<gate name="G$1" symbol="DP-7" x="2.54" y="2.54"/>
</gates>
<devices>
<device name="" package="M1QUE">
<connects>
<connect gate="G$1" pin="1" pad="1"/>
<connect gate="G$1" pin="2" pad="2 5" route="any"/>
<connect gate="G$1" pin="3" pad="3"/>
<connect gate="G$1" pin="4" pad="4"/>
<connect gate="G$1" pin="6" pad="6"/>
</connects>
<technologies>
<technology name=""/>
</technologies>
</device>
</devices>
</deviceset>
<deviceset name="120VAC" prefix="P+">
<description>&lt;b&gt;SUPPLY SYMBOL&lt;/b&gt;</description>
<gates>
<gate name="1" symbol="+5V" x="0" y="0"/>
</gates>
<devices>
<device name="">
<technologies>
<technology name=""/>
</technologies>
</device>
</devices>
</deviceset>
</devicesets>
</library>
</drawing>
<compatibility>
<note version="6.3" minversion="6.2.2" severity="warning">
Since Version 6.2.2 text objects can contain more than one line,
which will not be processed correctly with this version.
</note>
</compatibility>
</eagle>
