<!--This work is licensed under a Creative Commons Attribution-ShareAlike 4.0 International License (CC BY-SA) with Design Exception 1.0-->
<eagle version="7.1.0">
<drawing>
<settings>
<setting alwaysvectorfont="no"/>
<setting verticaltext="up"/>
</settings>
<grid distance="0.1" unitdist="inch" unit="inch" style="lines" multiple="1" display="no" altdistance="0.01" altunitdist="inch" altunit="inch"/>
<layers>
<layer number="1" name="Top" color="4" fill="1" visible="yes" active="yes"/>
<layer number="16" name="Bottom" color="1" fill="1" visible="yes" active="yes"/>
<layer number="17" name="Pads" color="2" fill="1" visible="yes" active="yes"/>
<layer number="18" name="Vias" color="2" fill="1" visible="yes" active="yes"/>
<layer number="19" name="Unrouted" color="6" fill="1" visible="yes" active="yes"/>
<layer number="20" name="Dimension" color="15" fill="1" visible="yes" active="yes"/>
<layer number="21" name="tPlace" color="7" fill="1" visible="yes" active="yes"/>
<layer number="22" name="bPlace" color="7" fill="1" visible="yes" active="yes"/>
<layer number="23" name="tOrigins" color="15" fill="1" visible="yes" active="yes"/>
<layer number="24" name="bOrigins" color="15" fill="1" visible="yes" active="yes"/>
<layer number="25" name="tNames" color="7" fill="1" visible="yes" active="yes"/>
<layer number="26" name="bNames" color="7" fill="1" visible="yes" active="yes"/>
<layer number="27" name="tValues" color="7" fill="1" visible="yes" active="yes"/>
<layer number="28" name="bValues" color="7" fill="1" visible="yes" active="yes"/>
<layer number="29" name="tStop" color="7" fill="3" visible="yes" active="yes"/>
<layer number="30" name="bStop" color="7" fill="6" visible="no" active="yes"/>
<layer number="31" name="tCream" color="7" fill="4" visible="yes" active="yes"/>
<layer number="32" name="bCream" color="7" fill="5" visible="no" active="yes"/>
<layer number="33" name="tFinish" color="6" fill="3" visible="no" active="yes"/>
<layer number="34" name="bFinish" color="6" fill="6" visible="no" active="yes"/>
<layer number="35" name="tGlue" color="7" fill="4" visible="no" active="yes"/>
<layer number="36" name="bGlue" color="7" fill="5" visible="no" active="yes"/>
<layer number="37" name="tTest" color="7" fill="1" visible="no" active="yes"/>
<layer number="38" name="bTest" color="7" fill="1" visible="no" active="yes"/>
<layer number="39" name="tKeepout" color="4" fill="11" visible="yes" active="yes"/>
<layer number="40" name="bKeepout" color="1" fill="11" visible="yes" active="yes"/>
<layer number="41" name="tRestrict" color="4" fill="10" visible="yes" active="yes"/>
<layer number="42" name="bRestrict" color="1" fill="10" visible="yes" active="yes"/>
<layer number="43" name="vRestrict" color="2" fill="10" visible="yes" active="yes"/>
<layer number="44" name="Drills" color="7" fill="1" visible="no" active="yes"/>
<layer number="45" name="Holes" color="7" fill="1" visible="no" active="yes"/>
<layer number="46" name="Milling" color="3" fill="1" visible="no" active="yes"/>
<layer number="47" name="Measures" color="7" fill="1" visible="no" active="yes"/>
<layer number="48" name="Document" color="7" fill="1" visible="yes" active="yes"/>
<layer number="49" name="Reference" color="7" fill="1" visible="yes" active="yes"/>
<layer number="51" name="tDocu" color="7" fill="1" visible="yes" active="yes"/>
<layer number="52" name="bDocu" color="7" fill="1" visible="yes" active="yes"/>
<layer number="90" name="Modules" color="5" fill="1" visible="yes" active="yes"/>
<layer number="91" name="Nets" color="2" fill="1" visible="yes" active="yes"/>
<layer number="92" name="Busses" color="1" fill="1" visible="yes" active="yes"/>
<layer number="93" name="Pins" color="2" fill="1" visible="yes" active="yes"/>
<layer number="94" name="Symbols" color="4" fill="1" visible="yes" active="yes"/>
<layer number="95" name="Names" color="7" fill="1" visible="yes" active="yes"/>
<layer number="96" name="Values" color="7" fill="1" visible="yes" active="yes"/>
<layer number="97" name="Info" color="7" fill="1" visible="yes" active="yes"/>
<layer number="98" name="Guide" color="6" fill="1" visible="yes" active="yes"/>
</layers>
<library>
<packages>
<package name="SCHURTER_0031.8201">
<wire x1="-11.25" y1="-4.8" x2="-11.25" y2="4.8" width="0.127" layer="51"/>
<wire x1="-11.25" y1="4.8" x2="11.25" y2="4.8" width="0.127" layer="51"/>
<wire x1="11.25" y1="4.8" x2="11.25" y2="-4.8" width="0.127" layer="51"/>
<wire x1="11.25" y1="-4.8" x2="-11.25" y2="-4.8" width="0.127" layer="51"/>
<wire x1="-11.25" y1="1.2" x2="-11.25" y2="4.8" width="0.127" layer="21"/>
<wire x1="-11.25" y1="4.8" x2="11.25" y2="4.8" width="0.127" layer="21"/>
<wire x1="11.25" y1="4.8" x2="11.25" y2="1.2" width="0.127" layer="21"/>
<wire x1="11.25" y1="-1.2" x2="11.25" y2="-4.8" width="0.127" layer="21"/>
<wire x1="11.25" y1="-4.8" x2="-11.25" y2="-4.8" width="0.127" layer="21"/>
<wire x1="-11.25" y1="-4.8" x2="-11.25" y2="-1.2" width="0.127" layer="21"/>
<wire x1="-13.1" y1="-5.05" x2="-13.1" y2="5.05" width="0.05" layer="39"/>
<wire x1="-13.1" y1="5.05" x2="13.1" y2="5.05" width="0.05" layer="39"/>
<wire x1="13.1" y1="5.05" x2="13.1" y2="-5.05" width="0.05" layer="39"/>
<wire x1="13.1" y1="-5.05" x2="-13.1" y2="-5.05" width="0.05" layer="39"/>
<text x="-12.5146" y="5.10597" size="1.27149" layer="25">&gt;NAME</text>
<text x="-12.605" y="-6.40253" size="1.2705" layer="27">&gt;VALUE</text>
<pad name="1" x="-11.875" y="0" drill="1.3"/>
<pad name="2" x="11.875" y="0" drill="1.3"/>
</package>
</packages>
<symbols>
<symbol name="0031.8201">
<wire x1="1.4288" y1="0.635" x2="0" y2="0" width="0.254" layer="94" curve="-233.143"/>
<wire x1="-1.4288" y1="-0.635" x2="0" y2="0" width="0.254" layer="94" curve="-233.143"/>
<circle x="-2.2225" y="0" radius="0.3175" width="0.1524" layer="94"/>
<circle x="2.2225" y="0" radius="0.3175" width="0.1524" layer="94"/>
<text x="-2.54655" y="4.45108" size="1.78258" layer="95">&gt;NAME</text>
<text x="-2.37962" y="2.40554" size="1.78381" layer="96">&gt;VALUE</text>
<pin name="2" x="5.08" y="0" visible="off" length="short" direction="pas" rot="R180"/>
<pin name="1" x="-5.08" y="0" visible="off" length="short" direction="pas"/>
</symbol>
</symbols>
<devicesets>
<deviceset name="0031.8201" prefix="TB">
<description>Fuse Block; 1-Pole; 500V; 10A; Solder THT; PCB Mnt, 22.5mm Pin Spacing; 5x20mm; UL94V-0</description>
<gates>
<gate name="G$1" symbol="0031.8201" x="0" y="0"/>
</gates>
<devices>
<device name="" package="SCHURTER_0031.8201">
<connects>
<connect gate="G$1" pin="1" pad="1"/>
<connect gate="G$1" pin="2" pad="2"/>
</connects>
<technologies>
<technology name="">
<attribute name="Availability" value="Unavailable"/>
<attribute name="Price" value="None"/>
<attribute name="MF" value="Schurter Inc."/>
<attribute name="Description" value="
Fuse Block; 1-Pole; 500V; 10A; Solder THT; PCB Mnt, 22.5mm Pin Spacing; 5x20mm; UL94V-0
"/>
<attribute name="Package" value="None"/>
<attribute name="MP" value="0031.8201"/>
</technology>
</technologies>
</device>
</devices>
</deviceset>
</devicesets>
</library>
</drawing>
</eagle>
