<?xml version="1.0" encoding="utf-8"?>
<!DOCTYPE eagle SYSTEM "eagle.dtd">
<eagle version="7.6.0">
<drawing>
<settings>
<setting alwaysvectorfont="no"/>
<setting verticaltext="up"/>
</settings>
<grid distance="0.1" unitdist="inch" unit="inch" style="lines" multiple="1" display="yes" altdistance="0.01" altunitdist="inch" altunit="inch"/>
<layers>
<layer number="1" name="Top" color="4" fill="1" visible="yes" active="yes"/>
<layer number="16" name="Bottom" color="1" fill="1" visible="yes" active="yes"/>
<layer number="17" name="Pads" color="2" fill="1" visible="yes" active="yes"/>
<layer number="18" name="Vias" color="2" fill="1" visible="yes" active="yes"/>
<layer number="19" name="Unrouted" color="6" fill="1" visible="yes" active="yes"/>
<layer number="20" name="Dimension" color="15" fill="1" visible="yes" active="yes"/>
<layer number="21" name="tPlace" color="7" fill="1" visible="yes" active="yes"/>
<layer number="22" name="bPlace" color="7" fill="1" visible="yes" active="yes"/>
<layer number="23" name="tOrigins" color="15" fill="1" visible="yes" active="yes"/>
<layer number="24" name="bOrigins" color="15" fill="1" visible="yes" active="yes"/>
<layer number="25" name="tNames" color="7" fill="1" visible="yes" active="yes"/>
<layer number="26" name="bNames" color="7" fill="1" visible="yes" active="yes"/>
<layer number="27" name="tValues" color="7" fill="1" visible="yes" active="yes"/>
<layer number="28" name="bValues" color="7" fill="1" visible="yes" active="yes"/>
<layer number="29" name="tStop" color="7" fill="3" visible="yes" active="yes"/>
<layer number="30" name="bStop" color="7" fill="6" visible="no" active="yes"/>
<layer number="31" name="tCream" color="7" fill="4" visible="yes" active="yes"/>
<layer number="32" name="bCream" color="7" fill="5" visible="no" active="yes"/>
<layer number="33" name="tFinish" color="6" fill="3" visible="no" active="yes"/>
<layer number="34" name="bFinish" color="6" fill="6" visible="no" active="yes"/>
<layer number="35" name="tGlue" color="7" fill="4" visible="no" active="yes"/>
<layer number="36" name="bGlue" color="7" fill="5" visible="no" active="yes"/>
<layer number="37" name="tTest" color="7" fill="1" visible="no" active="yes"/>
<layer number="38" name="bTest" color="7" fill="1" visible="no" active="yes"/>
<layer number="39" name="tKeepout" color="4" fill="11" visible="yes" active="yes"/>
<layer number="40" name="bKeepout" color="1" fill="11" visible="yes" active="yes"/>
<layer number="41" name="tRestrict" color="4" fill="10" visible="yes" active="yes"/>
<layer number="42" name="bRestrict" color="1" fill="10" visible="yes" active="yes"/>
<layer number="43" name="vRestrict" color="2" fill="10" visible="yes" active="yes"/>
<layer number="44" name="Drills" color="7" fill="1" visible="no" active="yes"/>
<layer number="45" name="Holes" color="7" fill="1" visible="no" active="yes"/>
<layer number="46" name="Milling" color="3" fill="1" visible="no" active="yes"/>
<layer number="47" name="Measures" color="7" fill="1" visible="no" active="yes"/>
<layer number="48" name="Document" color="7" fill="1" visible="yes" active="yes"/>
<layer number="49" name="Reference" color="7" fill="1" visible="yes" active="yes"/>
<layer number="51" name="tDocu" color="7" fill="1" visible="yes" active="yes"/>
<layer number="52" name="bDocu" color="7" fill="1" visible="yes" active="yes"/>
<layer number="90" name="Modules" color="5" fill="1" visible="yes" active="yes"/>
<layer number="91" name="Nets" color="2" fill="1" visible="yes" active="yes"/>
<layer number="92" name="Busses" color="1" fill="1" visible="yes" active="yes"/>
<layer number="93" name="Pins" color="2" fill="1" visible="yes" active="yes"/>
<layer number="94" name="Symbols" color="4" fill="1" visible="yes" active="yes"/>
<layer number="95" name="Names" color="7" fill="1" visible="yes" active="yes"/>
<layer number="96" name="Values" color="7" fill="1" visible="yes" active="yes"/>
<layer number="97" name="Info" color="7" fill="1" visible="yes" active="yes"/>
<layer number="98" name="Guide" color="6" fill="1" visible="yes" active="yes"/>
</layers>
<library>
<packages>
<package name="TO92">
<wire x1="-0.9692" y1="2.2098" x2="0.9692" y2="2.2098" width="0.1524" layer="21" curve="-47.3637"/>
<wire x1="-1.631" y1="-1.778" x2="-0.9689" y2="2.2098" width="0.1524" layer="21" curve="-113.782"/>
<wire x1="0.9689" y1="2.2098" x2="1.631" y2="-1.778" width="0.1524" layer="21" curve="-113.782"/>
<wire x1="-1.631" y1="-1.778" x2="1.631" y2="-1.778" width="0.1524" layer="21"/>
<text x="0" y="1.653209375" size="0.915625" layer="25" ratio="12" align="center">&gt;NAME</text>
<pad name="3" x="2.54" y="0" drill="1" diameter="1.9304"/>
<pad name="2" x="0" y="0" drill="1" diameter="1.9304"/>
<pad name="1" x="-2.54" y="0" drill="1" diameter="1.9304" shape="square"/>
</package>
</packages>
<symbols>
<symbol name="IGF-NA">
<circle x="2.54" y="-1.905" radius="0.254" width="0.4064" layer="94"/>
<rectangle x1="-0.25416875" y1="-2.5417" x2="0.508" y2="-1.27" layer="94"/>
<rectangle x1="-0.2544" y1="1.271990625" x2="0.508" y2="2.54" layer="94"/>
<rectangle x1="-0.25409375" y1="-0.889325" x2="0.508" y2="0.889" layer="94"/>
<wire x1="-1.1176" y1="2.413" x2="-1.1176" y2="0" width="0.254" layer="94"/>
<wire x1="2.54" y1="1.905" x2="0.5334" y2="1.905" width="0.1524" layer="94"/>
<wire x1="2.54" y1="2.54" x2="2.54" y2="1.905" width="0.1524" layer="94"/>
<wire x1="2.54" y1="0" x2="2.54" y2="-1.905" width="0.1524" layer="94"/>
<wire x1="0.508" y1="0" x2="1.778" y2="0.381" width="0.1524" layer="94"/>
<wire x1="1.778" y1="0.381" x2="1.778" y2="-0.381" width="0.1524" layer="94"/>
<wire x1="1.778" y1="-0.381" x2="0.508" y2="0" width="0.1524" layer="94"/>
<wire x1="0.508" y1="0" x2="1.143" y2="0" width="0.1524" layer="94"/>
<wire x1="1.143" y1="0" x2="2.54" y2="0" width="0.1524" layer="94"/>
<wire x1="0.508" y1="-1.905" x2="2.54" y2="-1.905" width="0.1524" layer="94"/>
<wire x1="2.54" y1="-1.905" x2="2.54" y2="-2.54" width="0.1524" layer="94"/>
<wire x1="-1.1176" y1="0" x2="-2.54" y2="0" width="0.1524" layer="94"/>
<wire x1="-1.1176" y1="0" x2="-1.1176" y2="-2.54" width="0.254" layer="94"/>
<wire x1="1.651" y1="0.127" x2="1.143" y2="0" width="0.3048" layer="94"/>
<wire x1="1.143" y1="0" x2="1.651" y2="-0.127" width="0.3048" layer="94"/>
<text x="3.30323125" y="0.5081875" size="1.778659375" layer="95">&gt;NAME</text>
<text x="3.3059" y="-0.5086" size="1.7801" layer="96" align="top-left">&gt;VALUE</text>
<text x="1.27118125" y="2.415240625" size="0.813553125" layer="97">D</text>
<text x="1.144359375" y="-3.17876875" size="0.8137625" layer="97">S</text>
<text x="-2.41331875" y="0.38105" size="0.81290625" layer="97">G</text>
<pin name="D" x="2.54" y="5.08" visible="off" length="short" direction="pas" rot="R270"/>
<pin name="G" x="-5.08" y="0" visible="off" length="short" direction="pas"/>
<pin name="S" x="2.54" y="-5.08" visible="off" length="short" direction="pas" rot="R90"/>
</symbol>
</symbols>
<devicesets>
<deviceset name="2N7000" prefix="Q">
<description>&lt;b&gt;N-Channel Mosfet&lt;/b&gt;
&lt;p&gt;
[S]-G-D pinout
&lt;p&gt;2n7000: &lt;a href="http://smallbear-electronics.mybigcommerce.com/transistor-fet-2n7000/"&gt;http://smallbear-electronics.mybigcommerce.com/transistor-fet-2n7000/&lt;/a&gt;</description>
<gates>
<gate name="G$1" symbol="IGF-NA" x="0" y="0"/>
</gates>
<devices>
<device name="" package="TO92">
<connects>
<connect gate="G$1" pin="D" pad="3"/>
<connect gate="G$1" pin="G" pad="2"/>
<connect gate="G$1" pin="S" pad="1"/>
</connects>
<technologies>
<technology name="">
<attribute name="AVAILABILITY" value="Unavailable"/>
<attribute name="DESCRIPTION" value="  MOSFETs- Power and Small Signal 60V 200mA N-Channel No-Cancel/No-Return "/>
<attribute name="MF" value="STMicroelectronics"/>
<attribute name="MP" value="2N7000"/>
<attribute name="PACKAGE" value="TO-92 ON Semiconductor"/>
<attribute name="PRICE" value="None"/>
</technology>
</technologies>
</device>
</devices>
</deviceset>
</devicesets>
</library>
</drawing>
</eagle>
