<?xml version="1.0" encoding="utf-8"?>
<!DOCTYPE eagle SYSTEM "eagle.dtd">
<eagle version="9.4.2">
<drawing>
<settings>
<setting alwaysvectorfont="no"/>
<setting keepoldvectorfont="yes"/>
<setting verticaltext="up"/>
</settings>
<grid distance="50" unitdist="mil" unit="mil" style="lines" multiple="1" display="yes" altdistance="5" altunitdist="mil" altunit="mil"/>
<layers>
<layer number="1" name="Top" color="4" fill="1" visible="yes" active="yes"/>
<layer number="16" name="Bottom" color="1" fill="1" visible="yes" active="yes"/>
<layer number="17" name="Pads" color="2" fill="1" visible="yes" active="yes"/>
<layer number="18" name="Vias" color="2" fill="1" visible="yes" active="yes"/>
<layer number="19" name="Unrouted" color="6" fill="1" visible="yes" active="yes"/>
<layer number="20" name="Dimension" color="15" fill="1" visible="yes" active="yes"/>
<layer number="21" name="tPlace" color="7" fill="1" visible="yes" active="yes"/>
<layer number="22" name="bPlace" color="7" fill="1" visible="yes" active="yes"/>
<layer number="23" name="tOrigins" color="15" fill="1" visible="yes" active="yes"/>
<layer number="24" name="bOrigins" color="15" fill="1" visible="yes" active="yes"/>
<layer number="25" name="tNames" color="7" fill="1" visible="yes" active="yes"/>
<layer number="26" name="bNames" color="7" fill="1" visible="yes" active="yes"/>
<layer number="27" name="tValues" color="7" fill="1" visible="yes" active="yes"/>
<layer number="28" name="bValues" color="7" fill="1" visible="yes" active="yes"/>
<layer number="29" name="tStop" color="7" fill="3" visible="no" active="yes"/>
<layer number="30" name="bStop" color="7" fill="6" visible="no" active="yes"/>
<layer number="31" name="tCream" color="7" fill="4" visible="no" active="yes"/>
<layer number="32" name="bCream" color="7" fill="5" visible="no" active="yes"/>
<layer number="33" name="tFinish" color="6" fill="3" visible="no" active="yes"/>
<layer number="34" name="bFinish" color="6" fill="6" visible="no" active="yes"/>
<layer number="35" name="tGlue" color="7" fill="4" visible="no" active="yes"/>
<layer number="36" name="bGlue" color="7" fill="5" visible="no" active="yes"/>
<layer number="37" name="tTest" color="7" fill="1" visible="no" active="yes"/>
<layer number="38" name="bTest" color="7" fill="1" visible="no" active="yes"/>
<layer number="39" name="tKeepout" color="4" fill="11" visible="yes" active="yes"/>
<layer number="40" name="bKeepout" color="1" fill="11" visible="yes" active="yes"/>
<layer number="41" name="tRestrict" color="4" fill="10" visible="yes" active="yes"/>
<layer number="42" name="bRestrict" color="1" fill="10" visible="yes" active="yes"/>
<layer number="43" name="vRestrict" color="2" fill="10" visible="yes" active="yes"/>
<layer number="44" name="Drills" color="7" fill="1" visible="no" active="yes"/>
<layer number="45" name="Holes" color="7" fill="1" visible="no" active="yes"/>
<layer number="46" name="Milling" color="3" fill="1" visible="no" active="yes"/>
<layer number="47" name="Measures" color="7" fill="1" visible="no" active="yes"/>
<layer number="48" name="Document" color="7" fill="1" visible="yes" active="yes"/>
<layer number="49" name="Reference" color="7" fill="1" visible="yes" active="yes"/>
<layer number="51" name="tDocu" color="7" fill="1" visible="yes" active="yes"/>
<layer number="52" name="bDocu" color="7" fill="1" visible="yes" active="yes"/>
<layer number="90" name="Modules" color="5" fill="1" visible="yes" active="yes"/>
<layer number="91" name="Nets" color="2" fill="1" visible="yes" active="yes"/>
<layer number="92" name="Busses" color="1" fill="1" visible="yes" active="yes"/>
<layer number="93" name="Pins" color="2" fill="1" visible="no" active="yes"/>
<layer number="94" name="Symbols" color="4" fill="1" visible="yes" active="yes"/>
<layer number="95" name="Names" color="7" fill="1" visible="yes" active="yes"/>
<layer number="96" name="Values" color="7" fill="1" visible="yes" active="yes"/>
<layer number="97" name="Info" color="7" fill="1" visible="yes" active="yes"/>
<layer number="98" name="Guide" color="6" fill="1" visible="yes" active="yes"/>
</layers>
<library>
<description>&lt;4 Circuit 0.325" (8.26mm) Barrier Block Connector, Screws with Captive Plate&lt;/b&gt;&lt;p&gt;
&lt;author&gt;Created by SamacSys&lt;/author&gt;</description>
<packages>
<package name="SHDR4W180P0X825_1X4_3400X1300X">
<description>&lt;b&gt;OSTYK42104030&lt;/b&gt;&lt;br&gt;
</description>
<pad name="1" x="0" y="0" drill="2" diameter="3" shape="square"/>
<pad name="2" x="8.25" y="0" drill="2" diameter="3"/>
<pad name="3" x="16.5" y="0" drill="2" diameter="3"/>
<pad name="4" x="24.75" y="0" drill="2" diameter="3"/>
<text x="-1.27" y="8.89" size="1.27" layer="25" align="center">&gt;NAME</text>
<text x="-1.27" y="7.62" size="1.27" layer="27" align="center">&gt;VALUE</text>
<wire x1="-5.4" y1="-3.1" x2="-5.4" y2="10.9" width="0.05" layer="51"/>
<wire x1="-5.4" y1="10.9" x2="29.6" y2="10.9" width="0.05" layer="51"/>
<wire x1="29.6" y1="10.9" x2="29.6" y2="-3.1" width="0.05" layer="51"/>
<wire x1="29.6" y1="-3.1" x2="-5.4" y2="-3.1" width="0.05" layer="51"/>
<wire x1="-5.15" y1="-2.85" x2="-5.15" y2="10.65" width="0.1" layer="51"/>
<wire x1="-5.15" y1="10.65" x2="29.35" y2="10.65" width="0.1" layer="51"/>
<wire x1="29.35" y1="10.65" x2="29.35" y2="-2.85" width="0.1" layer="51"/>
<wire x1="29.35" y1="-2.85" x2="-5.15" y2="-2.85" width="0.1" layer="51"/>
<wire x1="0" y1="-2.85" x2="29.35" y2="-2.85" width="0.2" layer="21"/>
<wire x1="29.35" y1="-2.85" x2="29.35" y2="10.65" width="0.2" layer="21"/>
<wire x1="29.35" y1="10.65" x2="-5.15" y2="10.65" width="0.2" layer="21"/>
<wire x1="-5.15" y1="10.65" x2="-5.15" y2="0" width="0.2" layer="21"/>
</package>
</packages>
<symbols>
<symbol name="OSTYK42104030">
<wire x1="5.08" y1="2.54" x2="15.24" y2="2.54" width="0.254" layer="94"/>
<wire x1="15.24" y1="-10.16" x2="15.24" y2="2.54" width="0.254" layer="94"/>
<wire x1="15.24" y1="-10.16" x2="5.08" y2="-10.16" width="0.254" layer="94"/>
<wire x1="5.08" y1="2.54" x2="5.08" y2="-10.16" width="0.254" layer="94"/>
<text x="16.51" y="7.62" size="1.778" layer="95" align="center-left">&gt;NAME</text>
<text x="16.51" y="5.08" size="1.778" layer="96" align="center-left">&gt;VALUE</text>
<pin name="1" x="0" y="0" length="middle"/>
<pin name="2" x="0" y="-2.54" length="middle"/>
<pin name="3" x="0" y="-5.08" length="middle"/>
<pin name="4" x="0" y="-7.62" length="middle"/>
</symbol>
</symbols>
<devicesets>
<deviceset name="OSTYK42104030" prefix="J">
<description>&lt;b&gt;4 Circuit 0.325" (8.26mm) Barrier Block Connector, Screws with Captive Plate&lt;/b&gt;&lt;p&gt;
Source: &lt;a href="http://www.on-shore.com/wp-content/uploads/2015/09/ostyk421xx030.pdf"&gt; Datasheet &lt;/a&gt;</description>
<gates>
<gate name="G$1" symbol="OSTYK42104030" x="0" y="0"/>
</gates>
<devices>
<device name="" package="SHDR4W180P0X825_1X4_3400X1300X">
<connects>
<connect gate="G$1" pin="1" pad="1"/>
<connect gate="G$1" pin="2" pad="2"/>
<connect gate="G$1" pin="3" pad="3"/>
<connect gate="G$1" pin="4" pad="4"/>
</connects>
<technologies>
<technology name="">
<attribute name="DESCRIPTION" value="4 Circuit 0.325&quot; (8.26mm) Barrier Block Connector, Screws with Captive Plate" constant="no"/>
<attribute name="HEIGHT" value="12.7mm" constant="no"/>
<attribute name="MANUFACTURER_NAME" value="On-Shore Technology, Inc" constant="no"/>
<attribute name="MANUFACTURER_PART_NUMBER" value="OSTYK42104030" constant="no"/>
<attribute name="MOUSER_PART_NUMBER" value="" constant="no"/>
<attribute name="MOUSER_PRICE-STOCK" value="" constant="no"/>
<attribute name="RS_PART_NUMBER" value="" constant="no"/>
<attribute name="RS_PRICE-STOCK" value="" constant="no"/>
</technology>
</technologies>
</device>
</devices>
</deviceset>
</devicesets>
</library>
</drawing>
</eagle>
